\relax 
\providecommand\hyper@newdestlabel[2]{}
\providecommand\HyperFirstAtBeginDocument{\AtBeginDocument}
\HyperFirstAtBeginDocument{\ifx\hyper@anchor\@undefined
\global\let\oldcontentsline\contentsline
\gdef\contentsline#1#2#3#4{\oldcontentsline{#1}{#2}{#3}}
\global\let\oldnewlabel\newlabel
\gdef\newlabel#1#2{\newlabelxx{#1}#2}
\gdef\newlabelxx#1#2#3#4#5#6{\oldnewlabel{#1}{{#2}{#3}}}
\AtEndDocument{\ifx\hyper@anchor\@undefined
\let\contentsline\oldcontentsline
\let\newlabel\oldnewlabel
\fi}
\fi}
\global\let\hyper@last\relax 
\gdef\HyperFirstAtBeginDocument#1{#1}
\providecommand\HyField@AuxAddToFields[1]{}
\providecommand\HyField@AuxAddToCoFields[2]{}
\providecommand \oddpage@label [2]{}
\babel@aux{croatian}{}
\@writefile{toc}{\contentsline {chapter}{\numberline {1}Uvod}{1}{chapter.1}}
\@writefile{lof}{\addvspace {10\p@ }}
\@writefile{lot}{\addvspace {10\p@ }}
\@writefile{toc}{\contentsline {section}{\numberline {1.1}Primjer u stvarnom \IeC {\v z}ivotu: naftne bu\IeC {\v s}otine}{1}{section.1.1}}
\@writefile{toc}{\contentsline {chapter}{\numberline {2}Algoritam Bayesove optimizacije}{2}{chapter.2}}
\@writefile{lof}{\addvspace {10\p@ }}
\@writefile{lot}{\addvspace {10\p@ }}
\@writefile{toc}{\contentsline {section}{\numberline {2.1}Gaussovi procesi}{2}{section.2.1}}
\@writefile{toc}{\contentsline {subsection}{\numberline {2.1.1}Osnovno}{2}{subsection.2.1.1}}
\@writefile{lof}{\contentsline {figure}{\numberline {2.1}{\ignorespaces \IeC {\v c}vrsta regresija\relax }}{3}{figure.caption.1}}
\providecommand*\caption@xref[2]{\@setref\relax\@undefined{#1}}
\newlabel{fig:a}{{2.1}{3}{čvrsta regresija\relax }{figure.caption.1}{}}
\@writefile{lof}{\contentsline {figure}{\numberline {2.2}{\ignorespaces regresija pomo\IeC {\'c}u Gaussovog procesa\relax }}{3}{figure.caption.1}}
\newlabel{fig:b}{{2.2}{3}{regresija pomoću Gaussovog procesa\relax }{figure.caption.1}{}}
\@writefile{toc}{\contentsline {subsection}{\numberline {2.1.2}Parametri Gaussovog procesa}{4}{subsection.2.1.2}}
\@writefile{lof}{\contentsline {figure}{\numberline {2.3}{\ignorespaces $\mu (t)=4sin(2t)$\relax }}{4}{figure.caption.2}}
\newlabel{fig:f_4sin_2t}{{2.3}{4}{$\mu (t)=4sin(2t)$\relax }{figure.caption.2}{}}
\@writefile{lof}{\contentsline {figure}{\numberline {2.4}{\ignorespaces $\mu (t)=\frac  {1}{2t^2}$\relax }}{4}{figure.caption.2}}
\newlabel{fig:f_05_t_squared}{{2.4}{4}{$\mu (t)=\frac {1}{2t^2}$\relax }{figure.caption.2}{}}
\@writefile{lof}{\contentsline {figure}{\numberline {2.5}{\ignorespaces $\mu (t)=0.1\qopname  \relax o{exp}(-t)$\relax }}{4}{figure.caption.2}}
\newlabel{fig:f_exp_minus_01_t}{{2.5}{4}{$\mu (t)=0.1\exp (-t)$\relax }{figure.caption.2}{}}
\@writefile{lof}{\contentsline {figure}{\numberline {2.6}{\ignorespaces Primjena Gaussovog procesa u generiranju 1D staze za igru\relax }}{5}{figure.caption.3}}
\newlabel{fig:f_4sin_2t}{{2.6}{5}{Primjena Gaussovog procesa u generiranju 1D staze za igru\relax }{figure.caption.3}{}}
\@writefile{lof}{\contentsline {figure}{\numberline {2.7}{\ignorespaces $\mathcal  {E}=0.4$\relax }}{6}{figure.caption.4}}
\newlabel{fig:point_four}{{2.7}{6}{$\mathcal {E}=0.4$\relax }{figure.caption.4}{}}
\@writefile{lof}{\contentsline {figure}{\numberline {2.8}{\ignorespaces $\mathcal  {E}=1.0$\relax }}{6}{figure.caption.4}}
\newlabel{fig:one}{{2.8}{6}{$\mathcal {E}=1.0$\relax }{figure.caption.4}{}}
\@writefile{lof}{\contentsline {figure}{\numberline {2.9}{\ignorespaces $\mathcal  {E}=3.0$\relax }}{6}{figure.caption.4}}
\newlabel{fig:three}{{2.9}{6}{$\mathcal {E}=3.0$\relax }{figure.caption.4}{}}
\@writefile{toc}{\contentsline {subsection}{\numberline {2.1.3}Modeliranje podataka Gaussovim procesom}{6}{subsection.2.1.3}}
\@writefile{toc}{\contentsline {subsection}{\numberline {2.1.4}Poja\IeC {\v s}njenje vizualizacije}{7}{subsection.2.1.4}}
\@writefile{lof}{\contentsline {figure}{\numberline {2.10}{\ignorespaces $p(f, f^{\tmspace  +\thinmuskip {.1667em}{}'})$, 3D prikaz\relax }}{7}{figure.caption.5}}
\newlabel{fig:point_four}{{2.10}{7}{$p(f, f^{\,{}'})$, 3D prikaz\relax }{figure.caption.5}{}}
\@writefile{lof}{\contentsline {figure}{\numberline {2.11}{\ignorespaces $p(f, f^{\tmspace  +\thinmuskip {.1667em}{}'})$, 2D prikaz\relax }}{7}{figure.caption.5}}
\newlabel{fig:one}{{2.11}{7}{$p(f, f^{\,{}'})$, 2D prikaz\relax }{figure.caption.5}{}}
\@writefile{toc}{\contentsline {subsection}{\numberline {2.1.5}Primjer izra\IeC {\v c}una}{8}{subsection.2.1.5}}
\@writefile{lof}{\contentsline {figure}{\numberline {2.12}{\ignorespaces Aposteriorna distribucija vrijednosti funkcije u to\IeC {\v c}ki $\textbf  {x}^{(1{}')}$\relax }}{9}{figure.caption.6}}
\newlabel{fig:point_four}{{2.12}{9}{Aposteriorna distribucija vrijednosti funkcije u točki $\textbf {x}^{(1{}')}$\relax }{figure.caption.6}{}}
\@writefile{toc}{\contentsline {section}{\numberline {2.2}Algoritam Bayesove minimizacije}{10}{section.2.2}}
\@writefile{loa}{\contentsline {algorithm}{\numberline {2.1}{\ignorespaces Bayes minimization algorithm\relax }}{10}{algorithm.2.1}}
\@writefile{lof}{\contentsline {figure}{\numberline {2.13}{\ignorespaces Stanje algoritma na po\IeC {\v c}etku - poznate su dvije to\IeC {\v c}ke\relax }}{12}{figure.caption.7}}
\newlabel{fig:point_four}{{2.13}{12}{Stanje algoritma na početku - poznate su dvije točke\relax }{figure.caption.7}{}}
\@writefile{lof}{\contentsline {figure}{\numberline {2.14}{\ignorespaces Nakon prve iteracije smanjila se povr\IeC {\v s}ina pouzdanosti\relax }}{12}{figure.caption.8}}
\newlabel{fig:point_four}{{2.14}{12}{Nakon prve iteracije smanjila se površina pouzdanosti\relax }{figure.caption.8}{}}
\@writefile{lof}{\contentsline {figure}{\numberline {2.15}{\ignorespaces Stanje nakon druge iteracije\relax }}{13}{figure.caption.9}}
\newlabel{fig:point_four}{{2.15}{13}{Stanje nakon druge iteracije\relax }{figure.caption.9}{}}
\@writefile{lof}{\contentsline {figure}{\numberline {2.16}{\ignorespaces U tre\IeC {\'c}oj iteraciji povr\IeC {\v s}ina pouzdanosti je ve\IeC {\'c}a radi pove\IeC {\'c}anja parametra $\textbf  {m}_a$\relax }}{13}{figure.caption.10}}
\newlabel{fig:point_four}{{2.16}{13}{U trećoj iteraciji površina pouzdanosti je veća radi povećanja parametra $\textbf {m}_a$\relax }{figure.caption.10}{}}
\@writefile{toc}{\contentsline {section}{\numberline {2.3}Hiperparametri modela}{14}{section.2.3}}
\@writefile{toc}{\contentsline {subsection}{\numberline {2.3.1}Vektor o\IeC {\v c}ekivanja Gaussovog procesa}{14}{subsection.2.3.1}}
\@writefile{toc}{\contentsline {subsection}{\numberline {2.3.2}Kovarijacijska funkcija Gaussovog procesa}{14}{subsection.2.3.2}}
\@writefile{toc}{\contentsline {subsection}{\numberline {2.3.3}Funkcija akvizicije}{14}{subsection.2.3.3}}
\@writefile{toc}{\contentsline {subsection}{\numberline {2.3.4}Algoritam optimizacije funkcije akvizicije}{14}{subsection.2.3.4}}
\@writefile{toc}{\contentsline {chapter}{\numberline {3}Primjena na minimizaciju funkcije}{15}{chapter.3}}
\@writefile{lof}{\addvspace {10\p@ }}
\@writefile{lot}{\addvspace {10\p@ }}
\@writefile{toc}{\contentsline {section}{\numberline {3.1}Jednostavan primjer}{15}{section.3.1}}
\@writefile{toc}{\contentsline {subsection}{\numberline {3.1.1}Gradijentni spust}{15}{subsection.3.1.1}}
\@writefile{toc}{\contentsline {subsection}{\numberline {3.1.2}Bayesova optimizacija}{16}{subsection.3.1.2}}
\@writefile{toc}{\contentsline {subsection}{\numberline {3.1.3}Kombinacija gradijentnog spusta i Bayesove optimizacije}{16}{subsection.3.1.3}}
\@writefile{lof}{\contentsline {figure}{\numberline {3.1}{\ignorespaces Shema eksperimenta\relax }}{16}{figure.caption.11}}
\newlabel{fig:point_four}{{3.1}{16}{Shema eksperimenta\relax }{figure.caption.11}{}}
\@writefile{toc}{\contentsline {chapter}{\numberline {4}Primjena u strojnom u\IeC {\v c}enju}{17}{chapter.4}}
\@writefile{lof}{\addvspace {10\p@ }}
\@writefile{lot}{\addvspace {10\p@ }}
\@writefile{toc}{\contentsline {section}{\numberline {4.1}Optimizacija hiperparametara neuronske mre\IeC {\v z}e}{17}{section.4.1}}
\@writefile{toc}{\contentsline {subsection}{\numberline {4.1.1}Primjer 1}{17}{subsection.4.1.1}}
\@writefile{toc}{\contentsline {subsection}{\numberline {4.1.2}Primjer 2}{18}{subsection.4.1.2}}
\@writefile{toc}{\contentsline {section}{\numberline {4.2}Klasifikacija Gaussovim procesom}{19}{section.4.2}}
\@writefile{toc}{\contentsline {subsection}{\numberline {4.2.1}Primjer 3}{19}{subsection.4.2.1}}
\bibdata{literatura}
\bibstyle{fer}
\@writefile{toc}{\contentsline {chapter}{\numberline {5}Zaklju\IeC {\v c}ak}{20}{chapter.5}}
\@writefile{lof}{\addvspace {10\p@ }}
\@writefile{lot}{\addvspace {10\p@ }}
\@writefile{toc}{\contentsline {chapter}{\numberline {6}Sa\IeC {\v z}etak}{21}{chapter.6}}
\@writefile{lof}{\addvspace {10\p@ }}
\@writefile{lot}{\addvspace {10\p@ }}
