\headcommand {\slideentry {0}{0}{1}{1/1}{}{0}}
\headcommand {\beamer@framepages {1}{1}}
\headcommand {\slideentry {0}{0}{2}{2/2}{}{0}}
\headcommand {\beamer@framepages {2}{2}}
\headcommand {\beamer@sectionpages {1}{2}}
\headcommand {\beamer@subsectionpages {1}{2}}
\headcommand {\sectionentry {1}{Uvod}{3}{Uvod}{0}}
\headcommand {\slideentry {1}{0}{1}{3/3}{}{0}}
\headcommand {\beamer@framepages {3}{3}}
\headcommand {\slideentry {1}{0}{2}{4/4}{}{0}}
\headcommand {\beamer@framepages {4}{4}}
\headcommand {\slideentry {1}{0}{3}{5/5}{}{0}}
\headcommand {\beamer@framepages {5}{5}}
\headcommand {\slideentry {1}{0}{4}{6/6}{}{0}}
\headcommand {\beamer@framepages {6}{6}}
\headcommand {\beamer@sectionpages {3}{6}}
\headcommand {\beamer@subsectionpages {3}{6}}
\headcommand {\sectionentry {2}{Gaussovi procesi}{7}{Gaussovi procesi}{0}}
\headcommand {\slideentry {2}{0}{1}{7/7}{}{0}}
\headcommand {\beamer@framepages {7}{7}}
\headcommand {\slideentry {2}{0}{2}{8/8}{}{0}}
\headcommand {\beamer@framepages {8}{8}}
\headcommand {\slideentry {2}{0}{3}{9/9}{}{0}}
\headcommand {\beamer@framepages {9}{9}}
\headcommand {\slideentry {2}{0}{4}{10/10}{}{0}}
\headcommand {\beamer@framepages {10}{10}}
\headcommand {\slideentry {2}{0}{5}{11/11}{}{0}}
\headcommand {\beamer@framepages {11}{11}}
\headcommand {\slideentry {2}{0}{6}{12/12}{}{0}}
\headcommand {\beamer@framepages {12}{12}}
\headcommand {\slideentry {2}{0}{7}{13/13}{}{0}}
\headcommand {\beamer@framepages {13}{13}}
\headcommand {\slideentry {2}{0}{8}{14/14}{}{0}}
\headcommand {\beamer@framepages {14}{14}}
\headcommand {\slideentry {2}{0}{9}{15/15}{}{0}}
\headcommand {\beamer@framepages {15}{15}}
\headcommand {\slideentry {2}{0}{10}{16/16}{}{0}}
\headcommand {\beamer@framepages {16}{16}}
\headcommand {\slideentry {2}{0}{11}{17/17}{}{0}}
\headcommand {\beamer@framepages {17}{17}}
\headcommand {\beamer@sectionpages {7}{17}}
\headcommand {\beamer@subsectionpages {7}{17}}
\headcommand {\sectionentry {3}{Algoritam Bayesove optimizacije}{18}{Algoritam Bayesove optimizacije}{0}}
\headcommand {\slideentry {3}{0}{1}{18/18}{}{0}}
\headcommand {\beamer@framepages {18}{18}}
\headcommand {\slideentry {3}{0}{2}{19/19}{}{0}}
\headcommand {\beamer@framepages {19}{19}}
\headcommand {\slideentry {3}{0}{3}{20/20}{}{0}}
\headcommand {\beamer@framepages {20}{20}}
\headcommand {\slideentry {3}{0}{4}{21/21}{}{0}}
\headcommand {\beamer@framepages {21}{21}}
\headcommand {\slideentry {3}{0}{5}{22/22}{}{0}}
\headcommand {\beamer@framepages {22}{22}}
\headcommand {\slideentry {3}{0}{6}{23/23}{}{0}}
\headcommand {\beamer@framepages {23}{23}}
\headcommand {\slideentry {3}{0}{7}{24/24}{}{0}}
\headcommand {\beamer@framepages {24}{24}}
\headcommand {\beamer@sectionpages {18}{24}}
\headcommand {\beamer@subsectionpages {18}{24}}
\headcommand {\sectionentry {4}{Literatura}{25}{Literatura}{0}}
\headcommand {\slideentry {4}{0}{1}{25/25}{}{0}}
\headcommand {\beamer@framepages {25}{25}}
\headcommand {\beamer@partpages {1}{25}}
\headcommand {\beamer@subsectionpages {25}{25}}
\headcommand {\beamer@sectionpages {25}{25}}
\headcommand {\beamer@documentpages {25}}
\headcommand {\gdef \inserttotalframenumber {25}}
