\babel@toc {croatian}{}
\beamer@sectionintoc {1}{Uvod}{3}{0}{1}
\beamer@sectionintoc {2}{Gaussovi procesi}{7}{0}{2}
\beamer@sectionintoc {3}{Algoritam Bayesove optimizacije}{18}{0}{3}
\beamer@sectionintoc {4}{Literatura}{25}{0}{4}
