{
  "is_discrete": false,
  "algorithm": {
    "initial_points": 1,
    "gp_params": {

    },
    "variable_names": ["x1", "x2"],
    "domain_bounds": {
      "x1": [-20, 20],
      "x2": [-20, 20]
    },
    "utility_function": {
      "expression": "UtilityFunction(kind=\"ucb_min\", kappa=5, xi=0)"
    }
  },
  "figure_size": [9, 5]
}