{
  "is_discrete": true,
  "algorithm": {
    "initial_points": 5,
    "gp_params": {

    },
    "variable_names": ["x1", "x2", "x3", "x4", "x5"],
    "domain_bounds": {
      "x1": [0, 2],
      "x2": [1, 50000],
      "x3": [2, 15],
      "x4": [0, 10000],
      "x5": [0, 10000]
    },
    "utility_function": {
      "expression": "UtilityFunction(kind=\"ucb_min\", kappa=5, xi=0)"
    }
  },
  "figure_size": [9, 5]
}